{
    "page_size": 12,
    "current": 1,
    "count": 236,
    "next": "http://localhost:8000/v1/dining_autocomplete/?page=2",
    "previous": null,
    "results": [
        {
            "name": "Craft London",
            "cuisine": [
                {
                    "url": "http://localhost:8000/v1/dining_cuisines/4/",
                    "name": "British",
                    "tags": []
                }
            ],
            "url": "http://localhost:8000/v1/dining_restaurants/90/",
            "tags": [
                {
                    "url": "http://localhost:8000/v1/tags/593/",
                    "name": "Faro"
                },
                {
                    "url": "http://localhost:8000/v1/tags/95/",
                    "name": "High end"
                },
                {
                    "url": "http://localhost:8000/v1/tags/337/",
                    "name": "Iggy Azalea"
                },
                {
                    "url": "http://localhost:8000/v1/tags/141/",
                    "name": "Finnair"
                },
                {
                    "url": "http://localhost:8000/v1/tags/168/",
                    "name": "First"
                }
            ],
            "city": "London",
            "price_indicator": null,
            "walk_in_only": false,
            "privacy_policy": null,
            "reservation_policy": "",
            "has_hot_table": false,
            "has_member_benefit": true,
            "object_type": "restaurant",
            "has_private_dining": false,
            "images": [
                {
                    "url": "http://localhost:8000/v1/dining_restaurant_images/92/",
                    "sequence": 0,
                    "image": "http://localhost:8000/media/dining_restaurant_images/Craft-web_Restaurant_Main-Slideshow_11_resize0c719868-ecbb-433c-9822-606c4b8522cc.jpg",
                    "accessibility_description": "Restaurant image.",
                    "is_main_image": true,
                    "restaurant": "http://localhost:8000/v1/dining_restaurants/90/"
                }
            ],
            "rating": 85
        },
        {
            "name": "Elizabeth Haigh (nee Allen)",
            "url": "http://localhost:8000/v1/dining_celebrity_chefs/10/",
            "number_of_restaurants": 0,
            "cuisine": [],
            "object_type": "celebrity_chef",
            "image": null,
            "tag_image": {
                "image": null,
                "accessibility_description": "",
                "title": "",
                "caption": ""
            }
        },
        {
            "url": "http://localhost:8000/v1/dining_hot_tables/11/",
            "object_type": "hot_table",
            "restaurant": {
                "url": "http://localhost:8000/v1/dining_restaurants/90/",
                "name": "Craft London",
                "cuisine": [
                    {
                        "url": "http://localhost:8000/v1/dining_cuisines/4/",
                        "name": "British",
                        "tags": []
                    }
                ],
                "price_indicator": null,
                "city": "London",
                "images": [
                    {
                        "url": "http://localhost:8000/v1/dining_restaurant_images/92/",
                        "sequence": 0,
                        "image": "http://localhost:8000/media/dining_restaurant_images/Craft-web_Restaurant_Main-Slideshow_11_resize0c719868-ecbb-433c-9822-606c4b8522cc.jpg",
                        "accessibility_description": "Restaurant image.",
                        "is_main_image": true,
                        "restaurant": "http://localhost:8000/v1/dining_restaurants/90/"
                    }
                ],
                "rating": 85
            },
            "number_of_seats": 2,
            "is_guaranteed": true,
            "no_show_charge_currency": "GBP",
            "no_show_charge": "0.000",
            "is_preauth_required": true,
            "status": "available",
            "available_at": "2017-10-31T01:14:08Z",
            "site": "http://localhost:8000/v1/sites/2/"
        },
        {
            "name": "Le Cafe Marly",
            "cuisine": [],
            "url": "http://localhost:8000/v1/dining_restaurants/57/",
            "tags": [
                {
                    "url": "http://localhost:8000/v1/tags/600/",
                    "name": "Naples"
                },
                {
                    "url": "http://localhost:8000/v1/tags/389/",
                    "name": "First Aid Kit"
                },
                {
                    "url": "http://localhost:8000/v1/tags/443/",
                    "name": "Rudimental"
                },
                {
                    "url": "http://localhost:8000/v1/tags/482/",
                    "name": "Food and dining"
                },
                {
                    "url": "http://localhost:8000/v1/tags/117/",
                    "name": "Etihad Airways"
                }
            ],
            "city": "Paris",
            "price_indicator": null,
            "walk_in_only": false,
            "privacy_policy": null,
            "reservation_policy": "",
            "has_hot_table": false,
            "has_member_benefit": true,
            "object_type": "restaurant",
            "has_private_dining": false,
            "images": [
                {
                    "url": "http://localhost:8000/v1/dining_restaurant_images/61/",
                    "sequence": 0,
                    "image": "http://localhost:8000/media/dining_restaurant_images/ed849d8cf46d6ba7173e01e7a92b50dca89d53387960d9e3-6b76-47ff-a97b-6a5e17ae7b0d.jpg",
                    "accessibility_description": "Restaurant image.",
                    "is_main_image": true,
                    "restaurant": "http://localhost:8000/v1/dining_restaurants/57/"
                }
            ],
            "rating": 65
        },
        {
            "name": "Daniel Clifford",
            "url": "http://localhost:8000/v1/dining_celebrity_chefs/9/",
            "number_of_restaurants": 0,
            "cuisine": [],
            "object_type": "celebrity_chef",
            "image": null,
            "tag_image": {
                "image": null,
                "accessibility_description": "",
                "title": "",
                "caption": ""
            }
        },
        {
            "url": "http://localhost:8000/v1/dining_hot_tables/31/",
            "object_type": "hot_table",
            "restaurant": {
                "url": "http://localhost:8000/v1/dining_restaurants/90/",
                "name": "Craft London",
                "cuisine": [
                    {
                        "url": "http://localhost:8000/v1/dining_cuisines/4/",
                        "name": "British",
                        "tags": []
                    }
                ],
                "price_indicator": null,
                "city": "London",
                "images": [
                    {
                        "url": "http://localhost:8000/v1/dining_restaurant_images/92/",
                        "sequence": 0,
                        "image": "http://localhost:8000/media/dining_restaurant_images/Craft-web_Restaurant_Main-Slideshow_11_resize0c719868-ecbb-433c-9822-606c4b8522cc.jpg",
                        "accessibility_description": "Restaurant image.",
                        "is_main_image": true,
                        "restaurant": "http://localhost:8000/v1/dining_restaurants/90/"
                    }
                ],
                "rating": 85
            },
            "number_of_seats": 5,
            "is_guaranteed": true,
            "no_show_charge_currency": "GBP",
            "no_show_charge": "0.000",
            "is_preauth_required": false,
            "status": "available",
            "available_at": "2017-10-31T09:41:42Z",
            "site": "http://localhost:8000/v1/sites/3/"
        },
        {
            "name": "Stair Lounge",
            "cuisine": [],
            "url": "http://localhost:8000/v1/dining_restaurants/66/",
            "tags": [
                {
                    "url": "http://localhost:8000/v1/tags/429/",
                    "name": "Nina Kraviz"
                },
                {
                    "url": "http://localhost:8000/v1/tags/346/",
                    "name": "Peter Gabriel"
                },
                {
                    "url": "http://localhost:8000/v1/tags/295/",
                    "name": "Chicago"
                }
            ],
            "city": "Tokyo",
            "price_indicator": null,
            "walk_in_only": false,
            "privacy_policy": null,
            "reservation_policy": "",
            "has_hot_table": false,
            "has_member_benefit": true,
            "object_type": "restaurant",
            "has_private_dining": false,
            "images": [
                {
                    "url": "http://localhost:8000/v1/dining_restaurant_images/62/",
                    "sequence": 0,
                    "image": "http://localhost:8000/media/dining_restaurant_images/New_photo4002c8e5-148f-4dbb-87ea-80bebe8f0b6a.jpg",
                    "accessibility_description": "Restaurant image.",
                    "is_main_image": true,
                    "restaurant": "http://localhost:8000/v1/dining_restaurants/66/"
                }
            ],
            "rating": 50
        },
        {
            "name": "Angela Hartnett",
            "url": "http://localhost:8000/v1/dining_celebrity_chefs/6/",
            "number_of_restaurants": 0,
            "cuisine": [],
            "object_type": "celebrity_chef",
            "image": null,
            "tag_image": {
                "image": null,
                "accessibility_description": "",
                "title": "",
                "caption": ""
            }
        },
        {
            "url": "http://localhost:8000/v1/dining_hot_tables/44/",
            "object_type": "hot_table",
            "restaurant": {
                "url": "http://localhost:8000/v1/dining_restaurants/90/",
                "name": "Craft London",
                "cuisine": [
                    {
                        "url": "http://localhost:8000/v1/dining_cuisines/4/",
                        "name": "British",
                        "tags": []
                    }
                ],
                "price_indicator": null,
                "city": "London",
                "images": [
                    {
                        "url": "http://localhost:8000/v1/dining_restaurant_images/92/",
                        "sequence": 0,
                        "image": "http://localhost:8000/media/dining_restaurant_images/Craft-web_Restaurant_Main-Slideshow_11_resize0c719868-ecbb-433c-9822-606c4b8522cc.jpg",
                        "accessibility_description": "Restaurant image.",
                        "is_main_image": true,
                        "restaurant": "http://localhost:8000/v1/dining_restaurants/90/"
                    }
                ],
                "rating": 85
            },
            "number_of_seats": 1,
            "is_guaranteed": false,
            "no_show_charge_currency": "GBP",
            "no_show_charge": "0.000",
            "is_preauth_required": false,
            "status": "available",
            "available_at": "2017-10-31T15:47:14Z",
            "site": "http://localhost:8000/v1/sites/2/"
        },
        {
            "name": "Baretto",
            "cuisine": [],
            "url": "http://localhost:8000/v1/dining_restaurants/47/",
            "tags": [
                {
                    "url": "http://localhost:8000/v1/tags/601/",
                    "name": "Oxford"
                },
                {
                    "url": "http://localhost:8000/v1/tags/57/",
                    "name": "Greek"
                },
                {
                    "url": "http://localhost:8000/v1/tags/314/",
                    "name": "Daft Punk"
                },
                {
                    "url": "http://localhost:8000/v1/tags/170/",
                    "name": "Family"
                }
            ],
            "city": "Sao Paulo",
            "price_indicator": null,
            "walk_in_only": false,
            "privacy_policy": null,
            "reservation_policy": "",
            "has_hot_table": false,
            "has_member_benefit": true,
            "object_type": "restaurant",
            "has_private_dining": false,
            "images": [
                {
                    "url": "http://localhost:8000/v1/dining_restaurant_images/43/",
                    "sequence": 0,
                    "image": "http://localhost:8000/media/dining_restaurant_images/Baretto2bfbbcfa6-65ec-417a-897e-ab0d6c95c63a.jpg",
                    "accessibility_description": "Restaurant image.",
                    "is_main_image": true,
                    "restaurant": "http://localhost:8000/v1/dining_restaurants/47/"
                }
            ],
            "rating": 50
        },
        {
            "name": "Aaron Webster",
            "url": "http://localhost:8000/v1/dining_celebrity_chefs/1/",
            "number_of_restaurants": 0,
            "cuisine": [],
            "object_type": "celebrity_chef",
            "image": null,
            "tag_image": {
                "image": null,
                "accessibility_description": "",
                "title": "",
                "caption": ""
            }
        },
        {
            "url": "http://localhost:8000/v1/dining_hot_tables/4/",
            "object_type": "hot_table",
            "restaurant": {
                "url": "http://localhost:8000/v1/dining_restaurants/74/",
                "name": "Philippe Restaurant",
                "cuisine": [
                    {
                        "url": "http://localhost:8000/v1/dining_cuisines/22/",
                        "name": "Modern European",
                        "tags": []
                    }
                ],
                "price_indicator": null,
                "city": "Biarritz",
                "images": [
                    {
                        "url": "http://localhost:8000/v1/dining_restaurant_images/78/",
                        "sequence": 0,
                        "image": "http://localhost:8000/media/dining_restaurant_images/New_photoefd2baec-6df6-4605-ab87-82a8886896a0.jpg",
                        "accessibility_description": "Restaurant image.",
                        "is_main_image": true,
                        "restaurant": "http://localhost:8000/v1/dining_restaurants/74/"
                    }
                ],
                "rating": 50
            },
            "number_of_seats": 3,
            "is_guaranteed": true,
            "no_show_charge_currency": "GBP",
            "no_show_charge": "0.000",
            "is_preauth_required": true,
            "status": "available",
            "available_at": "2017-10-31T13:46:51Z",
            "site": "http://localhost:8000/v1/sites/3/"
        }
    ]
}
